%YAML 1.1
%TAG !u! tag:unity3d.com,2011:
--- !u!1045 &1
EditorBuildSettings:
  m_ObjectHideFlags: 0
  serializedVersion: 2
  m_Scenes:
  - enabled: 1
    path: Assets/Scenes/Title.unity
    guid: a2db7cbe915611d479f4ffe156d1464c
  - enabled: 1
    path: Assets/Scenes/Main.unity
    guid: 71b1079c9af41d443a3b1908d84b70cf
  m_configObjects: {}
